(kicad_sch (version 20211123) (generator eeschema)

  (uuid 3eb94a1c-d1ed-49c0-8d00-ea40083ebcd7)

  (paper "A4")

  (title_block
    (title "CANTENNA CONTROLLER")
    (date "2022-09-24")
    (rev "0.2")
    (company "M0DWK")
  )

  (lib_symbols
    (symbol "Connector:Conn_01x02_Male" (pin_names (offset 1.016) hide) (in_bom yes) (on_board yes)
      (property "Reference" "J" (id 0) (at 0 2.54 0)
        (effects (font (size 1.27 1.27)))
      )
      (property "Value" "Conn_01x02_Male" (id 1) (at 0 -5.08 0)
        (effects (font (size 1.27 1.27)))
      )
      (property "Footprint" "" (id 2) (at 0 0 0)
        (effects (font (size 1.27 1.27)) hide)
      )
      (property "Datasheet" "~" (id 3) (at 0 0 0)
        (effects (font (size 1.27 1.27)) hide)
      )
      (property "ki_keywords" "connector" (id 4) (at 0 0 0)
        (effects (font (size 1.27 1.27)) hide)
      )
      (property "ki_description" "Generic connector, single row, 01x02, script generated (kicad-library-utils/schlib/autogen/connector/)" (id 5) (at 0 0 0)
        (effects (font (size 1.27 1.27)) hide)
      )
      (property "ki_fp_filters" "Connector*:*_1x??_*" (id 6) (at 0 0 0)
        (effects (font (size 1.27 1.27)) hide)
      )
      (symbol "Conn_01x02_Male_1_1"
        (polyline
          (pts
            (xy 1.27 -2.54)
            (xy 0.8636 -2.54)
          )
          (stroke (width 0.1524) (type default) (color 0 0 0 0))
          (fill (type none))
        )
        (polyline
          (pts
            (xy 1.27 0)
            (xy 0.8636 0)
          )
          (stroke (width 0.1524) (type default) (color 0 0 0 0))
          (fill (type none))
        )
        (rectangle (start 0.8636 -2.413) (end 0 -2.667)
          (stroke (width 0.1524) (type default) (color 0 0 0 0))
          (fill (type outline))
        )
        (rectangle (start 0.8636 0.127) (end 0 -0.127)
          (stroke (width 0.1524) (type default) (color 0 0 0 0))
          (fill (type outline))
        )
        (pin passive line (at 5.08 0 180) (length 3.81)
          (name "Pin_1" (effects (font (size 1.27 1.27))))
          (number "1" (effects (font (size 1.27 1.27))))
        )
        (pin passive line (at 5.08 -2.54 180) (length 3.81)
          (name "Pin_2" (effects (font (size 1.27 1.27))))
          (number "2" (effects (font (size 1.27 1.27))))
        )
      )
    )
    (symbol "Device:C" (pin_numbers hide) (pin_names (offset 0.254)) (in_bom yes) (on_board yes)
      (property "Reference" "C" (id 0) (at 0.635 2.54 0)
        (effects (font (size 1.27 1.27)) (justify left))
      )
      (property "Value" "C" (id 1) (at 0.635 -2.54 0)
        (effects (font (size 1.27 1.27)) (justify left))
      )
      (property "Footprint" "" (id 2) (at 0.9652 -3.81 0)
        (effects (font (size 1.27 1.27)) hide)
      )
      (property "Datasheet" "~" (id 3) (at 0 0 0)
        (effects (font (size 1.27 1.27)) hide)
      )
      (property "ki_keywords" "cap capacitor" (id 4) (at 0 0 0)
        (effects (font (size 1.27 1.27)) hide)
      )
      (property "ki_description" "Unpolarized capacitor" (id 5) (at 0 0 0)
        (effects (font (size 1.27 1.27)) hide)
      )
      (property "ki_fp_filters" "C_*" (id 6) (at 0 0 0)
        (effects (font (size 1.27 1.27)) hide)
      )
      (symbol "C_0_1"
        (polyline
          (pts
            (xy -2.032 -0.762)
            (xy 2.032 -0.762)
          )
          (stroke (width 0.508) (type default) (color 0 0 0 0))
          (fill (type none))
        )
        (polyline
          (pts
            (xy -2.032 0.762)
            (xy 2.032 0.762)
          )
          (stroke (width 0.508) (type default) (color 0 0 0 0))
          (fill (type none))
        )
      )
      (symbol "C_1_1"
        (pin passive line (at 0 3.81 270) (length 2.794)
          (name "~" (effects (font (size 1.27 1.27))))
          (number "1" (effects (font (size 1.27 1.27))))
        )
        (pin passive line (at 0 -3.81 90) (length 2.794)
          (name "~" (effects (font (size 1.27 1.27))))
          (number "2" (effects (font (size 1.27 1.27))))
        )
      )
    )
    (symbol "Device:C_Polarized" (pin_numbers hide) (pin_names (offset 0.254)) (in_bom yes) (on_board yes)
      (property "Reference" "C" (id 0) (at 0.635 2.54 0)
        (effects (font (size 1.27 1.27)) (justify left))
      )
      (property "Value" "C_Polarized" (id 1) (at 0.635 -2.54 0)
        (effects (font (size 1.27 1.27)) (justify left))
      )
      (property "Footprint" "" (id 2) (at 0.9652 -3.81 0)
        (effects (font (size 1.27 1.27)) hide)
      )
      (property "Datasheet" "~" (id 3) (at 0 0 0)
        (effects (font (size 1.27 1.27)) hide)
      )
      (property "ki_keywords" "cap capacitor" (id 4) (at 0 0 0)
        (effects (font (size 1.27 1.27)) hide)
      )
      (property "ki_description" "Polarized capacitor" (id 5) (at 0 0 0)
        (effects (font (size 1.27 1.27)) hide)
      )
      (property "ki_fp_filters" "CP_*" (id 6) (at 0 0 0)
        (effects (font (size 1.27 1.27)) hide)
      )
      (symbol "C_Polarized_0_1"
        (rectangle (start -2.286 0.508) (end 2.286 1.016)
          (stroke (width 0) (type default) (color 0 0 0 0))
          (fill (type none))
        )
        (polyline
          (pts
            (xy -1.778 2.286)
            (xy -0.762 2.286)
          )
          (stroke (width 0) (type default) (color 0 0 0 0))
          (fill (type none))
        )
        (polyline
          (pts
            (xy -1.27 2.794)
            (xy -1.27 1.778)
          )
          (stroke (width 0) (type default) (color 0 0 0 0))
          (fill (type none))
        )
        (rectangle (start 2.286 -0.508) (end -2.286 -1.016)
          (stroke (width 0) (type default) (color 0 0 0 0))
          (fill (type outline))
        )
      )
      (symbol "C_Polarized_1_1"
        (pin passive line (at 0 3.81 270) (length 2.794)
          (name "~" (effects (font (size 1.27 1.27))))
          (number "1" (effects (font (size 1.27 1.27))))
        )
        (pin passive line (at 0 -3.81 90) (length 2.794)
          (name "~" (effects (font (size 1.27 1.27))))
          (number "2" (effects (font (size 1.27 1.27))))
        )
      )
    )
    (symbol "Diode:1N4007" (pin_numbers hide) (pin_names (offset 1.016) hide) (in_bom yes) (on_board yes)
      (property "Reference" "D" (id 0) (at 0 2.54 0)
        (effects (font (size 1.27 1.27)))
      )
      (property "Value" "1N4007" (id 1) (at 0 -2.54 0)
        (effects (font (size 1.27 1.27)))
      )
      (property "Footprint" "Diode_THT:D_DO-41_SOD81_P10.16mm_Horizontal" (id 2) (at 0 -4.445 0)
        (effects (font (size 1.27 1.27)) hide)
      )
      (property "Datasheet" "http://www.vishay.com/docs/88503/1n4001.pdf" (id 3) (at 0 0 0)
        (effects (font (size 1.27 1.27)) hide)
      )
      (property "ki_keywords" "diode" (id 4) (at 0 0 0)
        (effects (font (size 1.27 1.27)) hide)
      )
      (property "ki_description" "1000V 1A General Purpose Rectifier Diode, DO-41" (id 5) (at 0 0 0)
        (effects (font (size 1.27 1.27)) hide)
      )
      (property "ki_fp_filters" "D*DO?41*" (id 6) (at 0 0 0)
        (effects (font (size 1.27 1.27)) hide)
      )
      (symbol "1N4007_0_1"
        (polyline
          (pts
            (xy -1.27 1.27)
            (xy -1.27 -1.27)
          )
          (stroke (width 0.254) (type default) (color 0 0 0 0))
          (fill (type none))
        )
        (polyline
          (pts
            (xy 1.27 0)
            (xy -1.27 0)
          )
          (stroke (width 0) (type default) (color 0 0 0 0))
          (fill (type none))
        )
        (polyline
          (pts
            (xy 1.27 1.27)
            (xy 1.27 -1.27)
            (xy -1.27 0)
            (xy 1.27 1.27)
          )
          (stroke (width 0.254) (type default) (color 0 0 0 0))
          (fill (type none))
        )
      )
      (symbol "1N4007_1_1"
        (pin passive line (at -3.81 0 0) (length 2.54)
          (name "K" (effects (font (size 1.27 1.27))))
          (number "1" (effects (font (size 1.27 1.27))))
        )
        (pin passive line (at 3.81 0 180) (length 2.54)
          (name "A" (effects (font (size 1.27 1.27))))
          (number "2" (effects (font (size 1.27 1.27))))
        )
      )
    )
    (symbol "Regulator_Linear:LM1085-5.0" (pin_names (offset 0.254)) (in_bom yes) (on_board yes)
      (property "Reference" "U" (id 0) (at -3.81 3.175 0)
        (effects (font (size 1.27 1.27)))
      )
      (property "Value" "LM1085-5.0" (id 1) (at 0 3.175 0)
        (effects (font (size 1.27 1.27)) (justify left))
      )
      (property "Footprint" "" (id 2) (at 0 6.35 0)
        (effects (font (size 1.27 1.27) italic) hide)
      )
      (property "Datasheet" "http://www.ti.com/lit/ds/symlink/lm1085.pdf" (id 3) (at 0 0 0)
        (effects (font (size 1.27 1.27)) hide)
      )
      (property "ki_keywords" "Voltage Regulator 5A Positive" (id 4) (at 0 0 0)
        (effects (font (size 1.27 1.27)) hide)
      )
      (property "ki_description" "3A 25V Linear Regulator, Fixed Output 5.0V, TO-220/TO-263" (id 5) (at 0 0 0)
        (effects (font (size 1.27 1.27)) hide)
      )
      (property "ki_fp_filters" "TO?220* TO?263*" (id 6) (at 0 0 0)
        (effects (font (size 1.27 1.27)) hide)
      )
      (symbol "LM1085-5.0_0_1"
        (rectangle (start -5.08 1.905) (end 5.08 -5.08)
          (stroke (width 0.254) (type default) (color 0 0 0 0))
          (fill (type background))
        )
      )
      (symbol "LM1085-5.0_1_1"
        (pin power_in line (at 0 -7.62 90) (length 2.54)
          (name "GND" (effects (font (size 1.27 1.27))))
          (number "1" (effects (font (size 1.27 1.27))))
        )
        (pin power_out line (at 7.62 0 180) (length 2.54)
          (name "VO" (effects (font (size 1.27 1.27))))
          (number "2" (effects (font (size 1.27 1.27))))
        )
        (pin power_in line (at -7.62 0 0) (length 2.54)
          (name "VI" (effects (font (size 1.27 1.27))))
          (number "3" (effects (font (size 1.27 1.27))))
        )
      )
    )
    (symbol "Regulator_Linear:NCP1117-3.3_SOT223" (pin_names (offset 0.254)) (in_bom yes) (on_board yes)
      (property "Reference" "U" (id 0) (at -3.81 3.175 0)
        (effects (font (size 1.27 1.27)))
      )
      (property "Value" "NCP1117-3.3_SOT223" (id 1) (at 0 3.175 0)
        (effects (font (size 1.27 1.27)) (justify left))
      )
      (property "Footprint" "Package_TO_SOT_SMD:SOT-223-3_TabPin2" (id 2) (at 0 5.08 0)
        (effects (font (size 1.27 1.27)) hide)
      )
      (property "Datasheet" "http://www.onsemi.com/pub_link/Collateral/NCP1117-D.PDF" (id 3) (at 2.54 -6.35 0)
        (effects (font (size 1.27 1.27)) hide)
      )
      (property "ki_keywords" "REGULATOR LDO 3.3V" (id 4) (at 0 0 0)
        (effects (font (size 1.27 1.27)) hide)
      )
      (property "ki_description" "1A Low drop-out regulator, Fixed Output 3.3V, SOT-223" (id 5) (at 0 0 0)
        (effects (font (size 1.27 1.27)) hide)
      )
      (property "ki_fp_filters" "SOT?223*TabPin2*" (id 6) (at 0 0 0)
        (effects (font (size 1.27 1.27)) hide)
      )
      (symbol "NCP1117-3.3_SOT223_0_1"
        (rectangle (start -5.08 -5.08) (end 5.08 1.905)
          (stroke (width 0.254) (type default) (color 0 0 0 0))
          (fill (type background))
        )
      )
      (symbol "NCP1117-3.3_SOT223_1_1"
        (pin power_in line (at 0 -7.62 90) (length 2.54)
          (name "GND" (effects (font (size 1.27 1.27))))
          (number "1" (effects (font (size 1.27 1.27))))
        )
        (pin power_out line (at 7.62 0 180) (length 2.54)
          (name "VO" (effects (font (size 1.27 1.27))))
          (number "2" (effects (font (size 1.27 1.27))))
        )
        (pin power_in line (at -7.62 0 0) (length 2.54)
          (name "VI" (effects (font (size 1.27 1.27))))
          (number "3" (effects (font (size 1.27 1.27))))
        )
      )
    )
    (symbol "power:+3V3" (power) (pin_names (offset 0)) (in_bom yes) (on_board yes)
      (property "Reference" "#PWR" (id 0) (at 0 -3.81 0)
        (effects (font (size 1.27 1.27)) hide)
      )
      (property "Value" "+3V3" (id 1) (at 0 3.556 0)
        (effects (font (size 1.27 1.27)))
      )
      (property "Footprint" "" (id 2) (at 0 0 0)
        (effects (font (size 1.27 1.27)) hide)
      )
      (property "Datasheet" "" (id 3) (at 0 0 0)
        (effects (font (size 1.27 1.27)) hide)
      )
      (property "ki_keywords" "power-flag" (id 4) (at 0 0 0)
        (effects (font (size 1.27 1.27)) hide)
      )
      (property "ki_description" "Power symbol creates a global label with name \"+3V3\"" (id 5) (at 0 0 0)
        (effects (font (size 1.27 1.27)) hide)
      )
      (symbol "+3V3_0_1"
        (polyline
          (pts
            (xy -0.762 1.27)
            (xy 0 2.54)
          )
          (stroke (width 0) (type default) (color 0 0 0 0))
          (fill (type none))
        )
        (polyline
          (pts
            (xy 0 0)
            (xy 0 2.54)
          )
          (stroke (width 0) (type default) (color 0 0 0 0))
          (fill (type none))
        )
        (polyline
          (pts
            (xy 0 2.54)
            (xy 0.762 1.27)
          )
          (stroke (width 0) (type default) (color 0 0 0 0))
          (fill (type none))
        )
      )
      (symbol "+3V3_1_1"
        (pin power_in line (at 0 0 90) (length 0) hide
          (name "+3V3" (effects (font (size 1.27 1.27))))
          (number "1" (effects (font (size 1.27 1.27))))
        )
      )
    )
    (symbol "power:+5V" (power) (pin_names (offset 0)) (in_bom yes) (on_board yes)
      (property "Reference" "#PWR" (id 0) (at 0 -3.81 0)
        (effects (font (size 1.27 1.27)) hide)
      )
      (property "Value" "+5V" (id 1) (at 0 3.556 0)
        (effects (font (size 1.27 1.27)))
      )
      (property "Footprint" "" (id 2) (at 0 0 0)
        (effects (font (size 1.27 1.27)) hide)
      )
      (property "Datasheet" "" (id 3) (at 0 0 0)
        (effects (font (size 1.27 1.27)) hide)
      )
      (property "ki_keywords" "power-flag" (id 4) (at 0 0 0)
        (effects (font (size 1.27 1.27)) hide)
      )
      (property "ki_description" "Power symbol creates a global label with name \"+5V\"" (id 5) (at 0 0 0)
        (effects (font (size 1.27 1.27)) hide)
      )
      (symbol "+5V_0_1"
        (polyline
          (pts
            (xy -0.762 1.27)
            (xy 0 2.54)
          )
          (stroke (width 0) (type default) (color 0 0 0 0))
          (fill (type none))
        )
        (polyline
          (pts
            (xy 0 0)
            (xy 0 2.54)
          )
          (stroke (width 0) (type default) (color 0 0 0 0))
          (fill (type none))
        )
        (polyline
          (pts
            (xy 0 2.54)
            (xy 0.762 1.27)
          )
          (stroke (width 0) (type default) (color 0 0 0 0))
          (fill (type none))
        )
      )
      (symbol "+5V_1_1"
        (pin power_in line (at 0 0 90) (length 0) hide
          (name "+5V" (effects (font (size 1.27 1.27))))
          (number "1" (effects (font (size 1.27 1.27))))
        )
      )
    )
    (symbol "power:GNDREF" (power) (pin_names (offset 0)) (in_bom yes) (on_board yes)
      (property "Reference" "#PWR" (id 0) (at 0 -6.35 0)
        (effects (font (size 1.27 1.27)) hide)
      )
      (property "Value" "GNDREF" (id 1) (at 0 -3.81 0)
        (effects (font (size 1.27 1.27)))
      )
      (property "Footprint" "" (id 2) (at 0 0 0)
        (effects (font (size 1.27 1.27)) hide)
      )
      (property "Datasheet" "" (id 3) (at 0 0 0)
        (effects (font (size 1.27 1.27)) hide)
      )
      (property "ki_keywords" "power-flag" (id 4) (at 0 0 0)
        (effects (font (size 1.27 1.27)) hide)
      )
      (property "ki_description" "Power symbol creates a global label with name \"GNDREF\" , reference supply ground" (id 5) (at 0 0 0)
        (effects (font (size 1.27 1.27)) hide)
      )
      (symbol "GNDREF_0_1"
        (polyline
          (pts
            (xy -0.635 -1.905)
            (xy 0.635 -1.905)
          )
          (stroke (width 0) (type default) (color 0 0 0 0))
          (fill (type none))
        )
        (polyline
          (pts
            (xy -0.127 -2.54)
            (xy 0.127 -2.54)
          )
          (stroke (width 0) (type default) (color 0 0 0 0))
          (fill (type none))
        )
        (polyline
          (pts
            (xy 0 -1.27)
            (xy 0 0)
          )
          (stroke (width 0) (type default) (color 0 0 0 0))
          (fill (type none))
        )
        (polyline
          (pts
            (xy 1.27 -1.27)
            (xy -1.27 -1.27)
          )
          (stroke (width 0) (type default) (color 0 0 0 0))
          (fill (type none))
        )
      )
      (symbol "GNDREF_1_1"
        (pin power_in line (at 0 0 270) (length 0) hide
          (name "GNDREF" (effects (font (size 1.27 1.27))))
          (number "1" (effects (font (size 1.27 1.27))))
        )
      )
    )
    (symbol "power:PWR_FLAG" (power) (pin_numbers hide) (pin_names (offset 0) hide) (in_bom yes) (on_board yes)
      (property "Reference" "#FLG" (id 0) (at 0 1.905 0)
        (effects (font (size 1.27 1.27)) hide)
      )
      (property "Value" "PWR_FLAG" (id 1) (at 0 3.81 0)
        (effects (font (size 1.27 1.27)))
      )
      (property "Footprint" "" (id 2) (at 0 0 0)
        (effects (font (size 1.27 1.27)) hide)
      )
      (property "Datasheet" "~" (id 3) (at 0 0 0)
        (effects (font (size 1.27 1.27)) hide)
      )
      (property "ki_keywords" "power-flag" (id 4) (at 0 0 0)
        (effects (font (size 1.27 1.27)) hide)
      )
      (property "ki_description" "Special symbol for telling ERC where power comes from" (id 5) (at 0 0 0)
        (effects (font (size 1.27 1.27)) hide)
      )
      (symbol "PWR_FLAG_0_0"
        (pin power_out line (at 0 0 90) (length 0)
          (name "pwr" (effects (font (size 1.27 1.27))))
          (number "1" (effects (font (size 1.27 1.27))))
        )
      )
      (symbol "PWR_FLAG_0_1"
        (polyline
          (pts
            (xy 0 0)
            (xy 0 1.27)
            (xy -1.016 1.905)
            (xy 0 2.54)
            (xy 1.016 1.905)
            (xy 0 1.27)
          )
          (stroke (width 0) (type default) (color 0 0 0 0))
          (fill (type none))
        )
      )
    )
  )

  (junction (at 83.82 87.63) (diameter 0) (color 0 0 0 0)
    (uuid 0ff40507-5cdd-4944-9118-a87dd497c65a)
  )
  (junction (at 102.87 87.63) (diameter 0) (color 0 0 0 0)
    (uuid 1fd808da-855a-4874-be29-0f8a43018a05)
  )
  (junction (at 194.31 113.03) (diameter 0) (color 0 0 0 0)
    (uuid 6961d894-45a6-4783-a7c7-1a5e5e876a2d)
  )
  (junction (at 83.82 95.25) (diameter 0) (color 0 0 0 0)
    (uuid 7348711a-a1d9-4ffc-9685-63876e48d5ce)
  )
  (junction (at 175.26 113.03) (diameter 0) (color 0 0 0 0)
    (uuid 7ee5b384-727e-4d48-9060-d27d1095d4ca)
  )
  (junction (at 226.06 113.03) (diameter 0) (color 0 0 0 0)
    (uuid 900bda1a-6a02-4dca-abb6-5e3bc6d200ea)
  )
  (junction (at 143.51 87.63) (diameter 0) (color 0 0 0 0)
    (uuid 991b953c-6fe5-4784-8fd0-677b79bc56f2)
  )
  (junction (at 181.61 87.63) (diameter 0) (color 0 0 0 0)
    (uuid 9eef641a-2fb5-493a-aec2-1b8af7000ded)
  )
  (junction (at 215.9 113.03) (diameter 0) (color 0 0 0 0)
    (uuid bc25f7f5-a00e-4179-a126-e882d9b334ca)
  )
  (junction (at 195.58 87.63) (diameter 0) (color 0 0 0 0)
    (uuid c08b8549-2d15-46e7-8693-636bd4e87f89)
  )
  (junction (at 102.87 95.25) (diameter 0) (color 0 0 0 0)
    (uuid c670d323-fbbc-4212-9197-03bc5b20d47e)
  )
  (junction (at 135.89 87.63) (diameter 0) (color 0 0 0 0)
    (uuid d404020b-9e59-45dc-9336-96df28fb14ab)
  )
  (junction (at 205.74 113.03) (diameter 0) (color 0 0 0 0)
    (uuid f9a6a942-b71e-4a85-aff7-37b6c2302f5c)
  )

  (wire (pts (xy 194.31 124.46) (xy 194.31 129.54))
    (stroke (width 0) (type default) (color 0 0 0 0))
    (uuid 03c43c70-2a22-4b9b-8a07-9780874cf8ba)
  )
  (wire (pts (xy 205.74 124.46) (xy 205.74 129.54))
    (stroke (width 0) (type default) (color 0 0 0 0))
    (uuid 075321b5-8336-4133-869b-b2982fe9d5fd)
  )
  (wire (pts (xy 226.06 113.03) (xy 231.14 113.03))
    (stroke (width 0) (type default) (color 0 0 0 0))
    (uuid 08b97377-720d-4032-a557-2212919997f2)
  )
  (wire (pts (xy 195.58 87.63) (xy 195.58 91.44))
    (stroke (width 0) (type default) (color 0 0 0 0))
    (uuid 0e687455-1791-49f8-8732-d01a7fbd4d70)
  )
  (wire (pts (xy 194.31 113.03) (xy 194.31 116.84))
    (stroke (width 0) (type default) (color 0 0 0 0))
    (uuid 18901926-650c-420c-b202-37f45e43f4a6)
  )
  (wire (pts (xy 226.06 113.03) (xy 226.06 116.84))
    (stroke (width 0) (type default) (color 0 0 0 0))
    (uuid 21b08fc4-d087-472a-a5c4-324aa0bbaf19)
  )
  (wire (pts (xy 125.73 95.25) (xy 125.73 100.33))
    (stroke (width 0) (type default) (color 0 0 0 0))
    (uuid 2e2660b3-5efc-40b2-b674-ddba59c846e3)
  )
  (wire (pts (xy 205.74 113.03) (xy 205.74 116.84))
    (stroke (width 0) (type default) (color 0 0 0 0))
    (uuid 3d0393be-e6f4-4c4c-9568-bc9dc6d086a7)
  )
  (wire (pts (xy 135.89 113.03) (xy 135.89 87.63))
    (stroke (width 0) (type default) (color 0 0 0 0))
    (uuid 3df68bf8-4809-44ad-8e76-0e911305532e)
  )
  (wire (pts (xy 83.82 87.63) (xy 90.17 87.63))
    (stroke (width 0) (type default) (color 0 0 0 0))
    (uuid 421412f6-6566-4bf3-8333-5ec1a29433de)
  )
  (wire (pts (xy 181.61 87.63) (xy 181.61 91.44))
    (stroke (width 0) (type default) (color 0 0 0 0))
    (uuid 43094883-507b-4339-b67d-9cb1173c2c99)
  )
  (wire (pts (xy 83.82 95.25) (xy 102.87 95.25))
    (stroke (width 0) (type default) (color 0 0 0 0))
    (uuid 445b993c-e674-42b6-a5ca-9964ff9da440)
  )
  (wire (pts (xy 143.51 95.25) (xy 143.51 96.52))
    (stroke (width 0) (type default) (color 0 0 0 0))
    (uuid 44ef94bf-087e-441b-8d70-e8e978a5741f)
  )
  (wire (pts (xy 205.74 113.03) (xy 215.9 113.03))
    (stroke (width 0) (type default) (color 0 0 0 0))
    (uuid 4c1e66d9-2970-48b4-a2dd-e15857f50b40)
  )
  (wire (pts (xy 77.47 90.17) (xy 83.82 90.17))
    (stroke (width 0) (type default) (color 0 0 0 0))
    (uuid 4dcb4e0c-31f4-4098-83d1-6265589b96a2)
  )
  (wire (pts (xy 226.06 124.46) (xy 226.06 129.54))
    (stroke (width 0) (type default) (color 0 0 0 0))
    (uuid 5bb1348c-4f39-433e-acfc-4dde6d92f141)
  )
  (wire (pts (xy 215.9 124.46) (xy 215.9 129.54))
    (stroke (width 0) (type default) (color 0 0 0 0))
    (uuid 5c210fcb-3288-4408-b670-533062dedc17)
  )
  (wire (pts (xy 102.87 95.25) (xy 102.87 97.79))
    (stroke (width 0) (type default) (color 0 0 0 0))
    (uuid 61605f24-b3d3-4694-b797-cedb337ec3fd)
  )
  (wire (pts (xy 215.9 113.03) (xy 215.9 116.84))
    (stroke (width 0) (type default) (color 0 0 0 0))
    (uuid 62e434fb-ce77-474b-8486-a69466daea67)
  )
  (wire (pts (xy 135.89 87.63) (xy 143.51 87.63))
    (stroke (width 0) (type default) (color 0 0 0 0))
    (uuid 63a67f01-473a-498c-a86c-3d368c6e804b)
  )
  (wire (pts (xy 231.14 81.28) (xy 231.14 87.63))
    (stroke (width 0) (type default) (color 0 0 0 0))
    (uuid 78313e2d-2ed5-48ca-aa3f-665f7841244a)
  )
  (wire (pts (xy 83.82 97.79) (xy 83.82 95.25))
    (stroke (width 0) (type default) (color 0 0 0 0))
    (uuid 80ce334d-e3ac-4379-a114-56a6305ddcf2)
  )
  (wire (pts (xy 77.47 87.63) (xy 83.82 87.63))
    (stroke (width 0) (type default) (color 0 0 0 0))
    (uuid 81f2c869-7eda-4811-a7bf-b55a07a1034f)
  )
  (wire (pts (xy 181.61 87.63) (xy 195.58 87.63))
    (stroke (width 0) (type default) (color 0 0 0 0))
    (uuid 8254c477-d099-454c-ade7-43e979486db3)
  )
  (wire (pts (xy 149.86 120.65) (xy 149.86 123.19))
    (stroke (width 0) (type default) (color 0 0 0 0))
    (uuid 86615d41-a026-438b-a8d1-8b97d6e6b58f)
  )
  (wire (pts (xy 143.51 87.63) (xy 181.61 87.63))
    (stroke (width 0) (type default) (color 0 0 0 0))
    (uuid 86944346-04ae-471d-9bc9-ce97e1c067c9)
  )
  (wire (pts (xy 231.14 105.41) (xy 231.14 113.03))
    (stroke (width 0) (type default) (color 0 0 0 0))
    (uuid 87af42d1-8c08-4c94-898a-c911fecf609d)
  )
  (wire (pts (xy 181.61 99.06) (xy 181.61 104.14))
    (stroke (width 0) (type default) (color 0 0 0 0))
    (uuid 8da8d053-2f68-4df5-a825-5101c6846bbc)
  )
  (wire (pts (xy 97.79 87.63) (xy 102.87 87.63))
    (stroke (width 0) (type default) (color 0 0 0 0))
    (uuid 915d2513-a9d4-497e-a89c-a9d00748dbd3)
  )
  (wire (pts (xy 157.48 113.03) (xy 175.26 113.03))
    (stroke (width 0) (type default) (color 0 0 0 0))
    (uuid 937da01e-ccd2-42b9-8f96-7ba6a614e5bd)
  )
  (wire (pts (xy 83.82 90.17) (xy 83.82 95.25))
    (stroke (width 0) (type default) (color 0 0 0 0))
    (uuid 97c481ac-4add-4517-b7f3-8651f28b81b0)
  )
  (wire (pts (xy 142.24 113.03) (xy 135.89 113.03))
    (stroke (width 0) (type default) (color 0 0 0 0))
    (uuid 9848bdee-2792-4717-aaf6-44763bcdc858)
  )
  (wire (pts (xy 133.35 87.63) (xy 135.89 87.63))
    (stroke (width 0) (type default) (color 0 0 0 0))
    (uuid 9bb1b910-8ccf-495d-bfe6-f59ea381d71e)
  )
  (wire (pts (xy 83.82 81.28) (xy 83.82 87.63))
    (stroke (width 0) (type default) (color 0 0 0 0))
    (uuid be2f2a37-bee3-46c2-828c-8015bf330936)
  )
  (wire (pts (xy 102.87 87.63) (xy 118.11 87.63))
    (stroke (width 0) (type default) (color 0 0 0 0))
    (uuid c1987a02-2bed-44a0-9d89-ce8d259844f7)
  )
  (wire (pts (xy 194.31 113.03) (xy 205.74 113.03))
    (stroke (width 0) (type default) (color 0 0 0 0))
    (uuid c7389122-6950-445a-9d34-f6bb6e8d3f0d)
  )
  (wire (pts (xy 195.58 99.06) (xy 195.58 104.14))
    (stroke (width 0) (type default) (color 0 0 0 0))
    (uuid ccd8d61b-82ff-41f8-b0bd-7a78f876885e)
  )
  (wire (pts (xy 215.9 113.03) (xy 226.06 113.03))
    (stroke (width 0) (type default) (color 0 0 0 0))
    (uuid e20f7188-158c-4984-b607-59359e488345)
  )
  (wire (pts (xy 175.26 113.03) (xy 194.31 113.03))
    (stroke (width 0) (type default) (color 0 0 0 0))
    (uuid e9cdbb09-7f5f-45f2-8f71-746a9cb73f22)
  )
  (wire (pts (xy 195.58 87.63) (xy 231.14 87.63))
    (stroke (width 0) (type default) (color 0 0 0 0))
    (uuid f0a361ba-4806-449c-9018-97c823eadac4)
  )
  (wire (pts (xy 175.26 120.65) (xy 175.26 125.73))
    (stroke (width 0) (type default) (color 0 0 0 0))
    (uuid f8392d1a-bdba-4600-b2f1-9b9c7db18558)
  )

  (symbol (lib_id "Device:C_Polarized") (at 175.26 116.84 0) (unit 1)
    (in_bom yes) (on_board yes)
    (uuid 01e6bc7f-1c40-4a7d-b55f-b467fd355ca5)
    (property "Reference" "C5" (id 0) (at 170.18 121.92 0)
      (effects (font (size 1.778 1.5113)) (justify left bottom))
    )
    (property "Value" "100uF" (id 1) (at 165.1 118.11 0)
      (effects (font (size 1.778 1.5113)) (justify left bottom))
    )
    (property "Footprint" "Capacitor_SMD:C_0805_2012Metric" (id 2) (at 176.2252 120.65 0)
      (effects (font (size 1.27 1.27)) hide)
    )
    (property "Datasheet" "~" (id 3) (at 175.26 116.84 0)
      (effects (font (size 1.27 1.27)) hide)
    )
    (pin "1" (uuid cf1133d6-5704-4e72-a07c-877904d49667))
    (pin "2" (uuid 3ffcf895-0eb4-4750-aee6-c7ae05a3ae5d))
  )

  (symbol (lib_id "power:GNDREF") (at 143.51 96.52 0) (unit 1)
    (in_bom yes) (on_board yes)
    (uuid 03968e2d-b39a-4c22-9e26-b82ba5506666)
    (property "Reference" "#SUPPLY0116" (id 0) (at 143.51 96.52 0)
      (effects (font (size 1.27 1.27)) hide)
    )
    (property "Value" "GND" (id 1) (at 141.605 99.695 0)
      (effects (font (size 1.778 1.5113)) (justify left bottom) hide)
    )
    (property "Footprint" "motherboard:" (id 2) (at 143.51 96.52 0)
      (effects (font (size 1.27 1.27)) hide)
    )
    (property "Datasheet" "" (id 3) (at 143.51 96.52 0)
      (effects (font (size 1.27 1.27)) hide)
    )
    (pin "1" (uuid 045d4b47-42b5-420b-a378-041af25111a7))
  )

  (symbol (lib_id "Device:C") (at 195.58 95.25 180) (unit 1)
    (in_bom yes) (on_board yes)
    (uuid 0722d761-7a1d-4d49-9a12-7b9322fa906c)
    (property "Reference" "C10" (id 0) (at 194.056 95.631 0)
      (effects (font (size 1.778 1.5113)) (justify left bottom))
    )
    (property "Value" "0.1uF" (id 1) (at 194.056 90.551 0)
      (effects (font (size 1.778 1.5113)) (justify left bottom))
    )
    (property "Footprint" "Capacitor_SMD:C_0805_2012Metric" (id 2) (at 194.6148 91.44 0)
      (effects (font (size 1.27 1.27)) hide)
    )
    (property "Datasheet" "~" (id 3) (at 195.58 95.25 0)
      (effects (font (size 1.27 1.27)) hide)
    )
    (pin "1" (uuid c29b82d5-ec77-49ab-b258-d70afeb9fb38))
    (pin "2" (uuid 67bc21f6-5ae1-4150-9afa-b23bbc1ad861))
  )

  (symbol (lib_id "power:GNDREF") (at 195.58 104.14 0) (unit 1)
    (in_bom yes) (on_board yes)
    (uuid 07cef9f4-269c-4729-945f-e2ff23a3d8fd)
    (property "Reference" "#SUPPLY03" (id 0) (at 195.58 104.14 0)
      (effects (font (size 1.27 1.27)) hide)
    )
    (property "Value" "GND" (id 1) (at 193.675 107.315 0)
      (effects (font (size 1.778 1.5113)) (justify left bottom) hide)
    )
    (property "Footprint" "motherboard:" (id 2) (at 195.58 104.14 0)
      (effects (font (size 1.27 1.27)) hide)
    )
    (property "Datasheet" "" (id 3) (at 195.58 104.14 0)
      (effects (font (size 1.27 1.27)) hide)
    )
    (pin "1" (uuid 49a1b043-e5b2-4679-8632-d1e810bf5a04))
  )

  (symbol (lib_id "Regulator_Linear:NCP1117-3.3_SOT223") (at 149.86 113.03 0) (unit 1)
    (in_bom yes) (on_board yes)
    (uuid 0b6bb0fd-afaf-441d-98b6-095ac00e7062)
    (property "Reference" "IC2" (id 0) (at 142.24 104.775 0)
      (effects (font (size 1.778 1.5113)) (justify left bottom))
    )
    (property "Value" "NCP1117ST33T3G" (id 1) (at 142.24 107.315 0)
      (effects (font (size 1.778 1.5113)) (justify left bottom))
    )
    (property "Footprint" "Package_TO_SOT_SMD:SOT-223-3_TabPin2" (id 2) (at 149.86 107.95 0)
      (effects (font (size 1.27 1.27)) hide)
    )
    (property "Datasheet" "http://www.onsemi.com/pub_link/Collateral/NCP1117-D.PDF" (id 3) (at 152.4 119.38 0)
      (effects (font (size 1.27 1.27)) hide)
    )
    (pin "1" (uuid eb136cc3-693a-48e0-b2f1-5f3abbed5429))
    (pin "2" (uuid 08d6ed6b-83d0-422a-901a-ee867601b833))
    (pin "3" (uuid f080c537-71c6-4dd9-bb4a-555a57d72838))
  )

  (symbol (lib_id "power:GNDREF") (at 102.87 97.79 0) (unit 1)
    (in_bom yes) (on_board yes)
    (uuid 2a0c4c42-99ab-452d-8d46-27d234ba4801)
    (property "Reference" "#SUPPLY0117" (id 0) (at 102.87 97.79 0)
      (effects (font (size 1.27 1.27)) hide)
    )
    (property "Value" "GND" (id 1) (at 100.965 100.965 0)
      (effects (font (size 1.778 1.5113)) (justify left bottom) hide)
    )
    (property "Footprint" "motherboard:" (id 2) (at 102.87 97.79 0)
      (effects (font (size 1.27 1.27)) hide)
    )
    (property "Datasheet" "" (id 3) (at 102.87 97.79 0)
      (effects (font (size 1.27 1.27)) hide)
    )
    (pin "1" (uuid 65d7d384-7f22-49d3-a547-7d041be96fd6))
  )

  (symbol (lib_id "power:PWR_FLAG") (at 113.03 109.22 90) (unit 1)
    (in_bom yes) (on_board yes)
    (uuid 2c625ef0-ab2b-4668-928a-b9d7a34c0760)
    (property "Reference" "#+12V_CLEAN0101" (id 0) (at 110.49 118.11 0))
    (property "Value" "PWR_FLAG" (id 1) (at 107.95 109.22 0))
    (property "Footprint" "" (id 2) (at 113.03 109.22 0)
      (effects (font (size 1.27 1.27)) hide)
    )
    (property "Datasheet" "~" (id 3) (at 113.03 109.22 0)
      (effects (font (size 1.27 1.27)) hide)
    )
    (pin "1" (uuid f1aacdca-ac68-4170-beb9-c33f978cce4a))
  )

  (symbol (lib_id "power:GNDREF") (at 149.86 123.19 0) (unit 1)
    (in_bom yes) (on_board yes)
    (uuid 2f812110-a1b0-44bb-bd91-00be9b91196c)
    (property "Reference" "#SUPPLY0114" (id 0) (at 149.86 123.19 0)
      (effects (font (size 1.27 1.27)) hide)
    )
    (property "Value" "GND" (id 1) (at 147.955 126.365 0)
      (effects (font (size 1.778 1.5113)) (justify left bottom) hide)
    )
    (property "Footprint" "motherboard:" (id 2) (at 149.86 123.19 0)
      (effects (font (size 1.27 1.27)) hide)
    )
    (property "Datasheet" "" (id 3) (at 149.86 123.19 0)
      (effects (font (size 1.27 1.27)) hide)
    )
    (pin "1" (uuid 972ef3e8-b848-4cd8-aa10-d6f277120b01))
  )

  (symbol (lib_id "power:GNDREF") (at 215.9 129.54 0) (unit 1)
    (in_bom yes) (on_board yes)
    (uuid 30d886fc-6819-4ebd-bfc5-1a6c44568994)
    (property "Reference" "#SUPPLY05" (id 0) (at 215.9 129.54 0)
      (effects (font (size 1.27 1.27)) hide)
    )
    (property "Value" "GND" (id 1) (at 213.995 132.715 0)
      (effects (font (size 1.778 1.5113)) (justify left bottom) hide)
    )
    (property "Footprint" "motherboard:" (id 2) (at 215.9 129.54 0)
      (effects (font (size 1.27 1.27)) hide)
    )
    (property "Datasheet" "" (id 3) (at 215.9 129.54 0)
      (effects (font (size 1.27 1.27)) hide)
    )
    (pin "1" (uuid d590aed2-dcff-4247-953e-1c539bce4775))
  )

  (symbol (lib_id "Device:C") (at 205.74 120.65 180) (unit 1)
    (in_bom yes) (on_board yes)
    (uuid 34850382-455a-471c-b41c-2b0737ab6be4)
    (property "Reference" "C11" (id 0) (at 204.216 121.031 0)
      (effects (font (size 1.778 1.5113)) (justify left bottom))
    )
    (property "Value" "0.1uF" (id 1) (at 204.216 115.951 0)
      (effects (font (size 1.778 1.5113)) (justify left bottom))
    )
    (property "Footprint" "Capacitor_SMD:C_0805_2012Metric" (id 2) (at 204.7748 116.84 0)
      (effects (font (size 1.27 1.27)) hide)
    )
    (property "Datasheet" "~" (id 3) (at 205.74 120.65 0)
      (effects (font (size 1.27 1.27)) hide)
    )
    (pin "1" (uuid c53653fd-6b4e-433a-954c-9783934be0b5))
    (pin "2" (uuid f9c5224d-1925-4e24-b24c-3afd0fa83d7c))
  )

  (symbol (lib_id "Diode:1N4007") (at 93.98 87.63 0) (mirror y) (unit 1)
    (in_bom yes) (on_board yes)
    (uuid 365159df-23e4-4f2e-b0be-da712fd5fddb)
    (property "Reference" "D1" (id 0) (at 91.44 87.1474 0)
      (effects (font (size 1.778 1.5113)) (justify left bottom))
    )
    (property "Value" "1N4007FL" (id 1) (at 96.52 84.8614 0)
      (effects (font (size 1.778 1.5113)) (justify left bottom))
    )
    (property "Footprint" "Diode_SMD:D_0805_2012Metric" (id 2) (at 93.98 92.075 0)
      (effects (font (size 1.27 1.27)) hide)
    )
    (property "Datasheet" "http://www.vishay.com/docs/88503/1n4001.pdf" (id 3) (at 93.98 87.63 0)
      (effects (font (size 1.27 1.27)) hide)
    )
    (pin "1" (uuid 7bb40b61-82e0-4871-8743-67a393053dd4))
    (pin "2" (uuid c4268e7b-48ae-4885-9582-a1fe6de8ece4))
  )

  (symbol (lib_id "power:GNDREF") (at 175.26 125.73 0) (unit 1)
    (in_bom yes) (on_board yes)
    (uuid 372d2e9b-9ec7-4f29-9415-1ef425072f4d)
    (property "Reference" "#SUPPLY0115" (id 0) (at 175.26 125.73 0)
      (effects (font (size 1.27 1.27)) hide)
    )
    (property "Value" "GND" (id 1) (at 173.355 128.905 0)
      (effects (font (size 1.778 1.5113)) (justify left bottom) hide)
    )
    (property "Footprint" "motherboard:" (id 2) (at 175.26 125.73 0)
      (effects (font (size 1.27 1.27)) hide)
    )
    (property "Datasheet" "" (id 3) (at 175.26 125.73 0)
      (effects (font (size 1.27 1.27)) hide)
    )
    (pin "1" (uuid 98d4b13d-e6c3-4c74-9ab8-e8924b0a235c))
  )

  (symbol (lib_id "Device:C") (at 226.06 120.65 180) (unit 1)
    (in_bom yes) (on_board yes)
    (uuid 3cb1b122-3a67-4fee-bdfa-0c0172ffeea3)
    (property "Reference" "C13" (id 0) (at 224.536 121.031 0)
      (effects (font (size 1.778 1.5113)) (justify left bottom))
    )
    (property "Value" "0.1uF" (id 1) (at 224.536 115.951 0)
      (effects (font (size 1.778 1.5113)) (justify left bottom))
    )
    (property "Footprint" "Capacitor_SMD:C_0805_2012Metric" (id 2) (at 225.0948 116.84 0)
      (effects (font (size 1.27 1.27)) hide)
    )
    (property "Datasheet" "~" (id 3) (at 226.06 120.65 0)
      (effects (font (size 1.27 1.27)) hide)
    )
    (pin "1" (uuid a184bae6-76d4-4118-afb9-2f046a133675))
    (pin "2" (uuid 17f186cb-64df-412d-a234-1dc342119706))
  )

  (symbol (lib_id "power:GNDREF") (at 181.61 104.14 0) (unit 1)
    (in_bom yes) (on_board yes)
    (uuid 51f8a4e2-67a8-49d5-84b5-b9988cf38e08)
    (property "Reference" "#SUPPLY01" (id 0) (at 181.61 104.14 0)
      (effects (font (size 1.27 1.27)) hide)
    )
    (property "Value" "GND" (id 1) (at 179.705 107.315 0)
      (effects (font (size 1.778 1.5113)) (justify left bottom) hide)
    )
    (property "Footprint" "motherboard:" (id 2) (at 181.61 104.14 0)
      (effects (font (size 1.27 1.27)) hide)
    )
    (property "Datasheet" "" (id 3) (at 181.61 104.14 0)
      (effects (font (size 1.27 1.27)) hide)
    )
    (pin "1" (uuid 825434cd-6dd2-4355-a5bb-8c39e3e8ed06))
  )

  (symbol (lib_id "Device:C") (at 181.61 95.25 180) (unit 1)
    (in_bom yes) (on_board yes)
    (uuid 5d98914d-1801-43c8-96ca-19f222dbae40)
    (property "Reference" "C4" (id 0) (at 180.086 95.631 0)
      (effects (font (size 1.778 1.5113)) (justify left bottom))
    )
    (property "Value" "0.1uF" (id 1) (at 180.086 90.551 0)
      (effects (font (size 1.778 1.5113)) (justify left bottom))
    )
    (property "Footprint" "Capacitor_SMD:C_0805_2012Metric" (id 2) (at 180.6448 91.44 0)
      (effects (font (size 1.27 1.27)) hide)
    )
    (property "Datasheet" "~" (id 3) (at 181.61 95.25 0)
      (effects (font (size 1.27 1.27)) hide)
    )
    (pin "1" (uuid 5dc56d43-162b-40f9-8dbd-ba25efb2f4cf))
    (pin "2" (uuid 3e1667d0-25e8-44c0-af55-7fd66178a644))
  )

  (symbol (lib_id "Device:C") (at 215.9 120.65 180) (unit 1)
    (in_bom yes) (on_board yes)
    (uuid 6c0f8b39-e25e-4812-9e17-4ba25eb889a7)
    (property "Reference" "C12" (id 0) (at 214.376 121.031 0)
      (effects (font (size 1.778 1.5113)) (justify left bottom))
    )
    (property "Value" "0.1uF" (id 1) (at 214.376 115.951 0)
      (effects (font (size 1.778 1.5113)) (justify left bottom))
    )
    (property "Footprint" "Capacitor_SMD:C_0805_2012Metric" (id 2) (at 214.9348 116.84 0)
      (effects (font (size 1.27 1.27)) hide)
    )
    (property "Datasheet" "~" (id 3) (at 215.9 120.65 0)
      (effects (font (size 1.27 1.27)) hide)
    )
    (pin "1" (uuid e7f07bfb-49f1-4eea-b160-2dea04b0edc2))
    (pin "2" (uuid 344a3522-748f-4cb7-b349-fc6d1db1fa52))
  )

  (symbol (lib_id "Device:C") (at 194.31 120.65 180) (unit 1)
    (in_bom yes) (on_board yes)
    (uuid 84e20c7b-fc58-4dd2-8f27-af326a749ade)
    (property "Reference" "C6" (id 0) (at 192.786 121.031 0)
      (effects (font (size 1.778 1.5113)) (justify left bottom))
    )
    (property "Value" "0.1uF" (id 1) (at 192.786 115.951 0)
      (effects (font (size 1.778 1.5113)) (justify left bottom))
    )
    (property "Footprint" "Capacitor_SMD:C_0805_2012Metric" (id 2) (at 193.3448 116.84 0)
      (effects (font (size 1.27 1.27)) hide)
    )
    (property "Datasheet" "~" (id 3) (at 194.31 120.65 0)
      (effects (font (size 1.27 1.27)) hide)
    )
    (pin "1" (uuid 5ae74ffd-2314-47bb-8f30-b30bce0e17f9))
    (pin "2" (uuid 6d7244e6-83e0-4b8f-b030-d7ce1822f6e7))
  )

  (symbol (lib_id "power:GNDREF") (at 226.06 129.54 0) (unit 1)
    (in_bom yes) (on_board yes)
    (uuid 85e42f55-900a-4695-bc77-61994173d009)
    (property "Reference" "#SUPPLY06" (id 0) (at 226.06 129.54 0)
      (effects (font (size 1.27 1.27)) hide)
    )
    (property "Value" "GND" (id 1) (at 224.155 132.715 0)
      (effects (font (size 1.778 1.5113)) (justify left bottom) hide)
    )
    (property "Footprint" "motherboard:" (id 2) (at 226.06 129.54 0)
      (effects (font (size 1.27 1.27)) hide)
    )
    (property "Datasheet" "" (id 3) (at 226.06 129.54 0)
      (effects (font (size 1.27 1.27)) hide)
    )
    (pin "1" (uuid 4629210a-167b-4015-87be-260bb5c5ddce))
  )

  (symbol (lib_id "power:+5V") (at 231.14 81.28 0) (unit 1)
    (in_bom yes) (on_board yes)
    (uuid 87c58959-b8d4-4ce2-b104-338db9a6739f)
    (property "Reference" "#P+0103" (id 0) (at 231.14 81.28 0)
      (effects (font (size 1.27 1.27)) hide)
    )
    (property "Value" "+5V" (id 1) (at 228.6 86.36 90)
      (effects (font (size 1.778 1.5113)) (justify left bottom))
    )
    (property "Footprint" "motherboard:" (id 2) (at 231.14 81.28 0)
      (effects (font (size 1.27 1.27)) hide)
    )
    (property "Datasheet" "" (id 3) (at 231.14 81.28 0)
      (effects (font (size 1.27 1.27)) hide)
    )
    (pin "1" (uuid cd20c7e1-f016-4745-8bf6-a32001ecb9cd))
  )

  (symbol (lib_id "Device:C_Polarized") (at 143.51 91.44 0) (unit 1)
    (in_bom yes) (on_board yes)
    (uuid 8c6c36fb-9c46-45e4-a480-15f6f2a410c3)
    (property "Reference" "C1" (id 0) (at 144.653 90.9574 0)
      (effects (font (size 1.778 1.5113)) (justify left bottom))
    )
    (property "Value" "100uF" (id 1) (at 144.653 96.0374 0)
      (effects (font (size 1.778 1.5113)) (justify left bottom))
    )
    (property "Footprint" "Capacitor_SMD:C_0805_2012Metric" (id 2) (at 144.4752 95.25 0)
      (effects (font (size 1.27 1.27)) hide)
    )
    (property "Datasheet" "~" (id 3) (at 143.51 91.44 0)
      (effects (font (size 1.27 1.27)) hide)
    )
    (pin "1" (uuid ecd6f994-40c4-4114-9213-f822a4e20587))
    (pin "2" (uuid 5987a545-852e-4a42-a9d9-211fc7e08353))
  )

  (symbol (lib_id "power:PWR_FLAG") (at 83.82 81.28 0) (unit 1)
    (in_bom yes) (on_board yes)
    (uuid 913dd538-f493-45ad-8913-c28b523516a1)
    (property "Reference" "#+12V0101" (id 0) (at 90.17 78.74 0))
    (property "Value" "PWR_FLAG" (id 1) (at 83.82 76.2 0))
    (property "Footprint" "" (id 2) (at 83.82 81.28 0)
      (effects (font (size 1.27 1.27)) hide)
    )
    (property "Datasheet" "~" (id 3) (at 83.82 81.28 0)
      (effects (font (size 1.27 1.27)) hide)
    )
    (pin "1" (uuid e0f08104-d1a6-48d5-83d9-8933666fb024))
  )

  (symbol (lib_id "power:GNDREF") (at 194.31 129.54 0) (unit 1)
    (in_bom yes) (on_board yes)
    (uuid b8f9a6b5-8cd1-4946-86eb-3130ceb9afc9)
    (property "Reference" "#SUPPLY02" (id 0) (at 194.31 129.54 0)
      (effects (font (size 1.27 1.27)) hide)
    )
    (property "Value" "GND" (id 1) (at 192.405 132.715 0)
      (effects (font (size 1.778 1.5113)) (justify left bottom) hide)
    )
    (property "Footprint" "motherboard:" (id 2) (at 194.31 129.54 0)
      (effects (font (size 1.27 1.27)) hide)
    )
    (property "Datasheet" "" (id 3) (at 194.31 129.54 0)
      (effects (font (size 1.27 1.27)) hide)
    )
    (pin "1" (uuid 931a7fd3-4e98-40ab-8566-f40ef0899ecd))
  )

  (symbol (lib_id "Device:C_Polarized") (at 102.87 91.44 0) (unit 1)
    (in_bom yes) (on_board yes)
    (uuid c9f310c5-6f16-4db7-a99b-6a8c9d1f7970)
    (property "Reference" "C9" (id 0) (at 104.013 90.9574 0)
      (effects (font (size 1.778 1.5113)) (justify left bottom))
    )
    (property "Value" "100uF" (id 1) (at 104.013 96.0374 0)
      (effects (font (size 1.778 1.5113)) (justify left bottom))
    )
    (property "Footprint" "Capacitor_SMD:CP_Elec_8x10.5" (id 2) (at 103.8352 95.25 0)
      (effects (font (size 1.27 1.27)) hide)
    )
    (property "Datasheet" "~" (id 3) (at 102.87 91.44 0)
      (effects (font (size 1.27 1.27)) hide)
    )
    (pin "1" (uuid ebc40ecf-1b29-429f-9999-d677e8ef4e18))
    (pin "2" (uuid cdb97217-407f-42e7-b796-ad95bb2d5742))
  )

  (symbol (lib_id "power:+3V3") (at 231.14 105.41 0) (unit 1)
    (in_bom yes) (on_board yes)
    (uuid cf5e3496-76c8-45ee-aa22-86b53adca46e)
    (property "Reference" "#+3V0102" (id 0) (at 231.14 105.41 0)
      (effects (font (size 1.27 1.27)) hide)
    )
    (property "Value" "+3V3" (id 1) (at 228.6 110.49 90)
      (effects (font (size 1.778 1.5113)) (justify left bottom))
    )
    (property "Footprint" "motherboard:" (id 2) (at 231.14 105.41 0)
      (effects (font (size 1.27 1.27)) hide)
    )
    (property "Datasheet" "" (id 3) (at 231.14 105.41 0)
      (effects (font (size 1.27 1.27)) hide)
    )
    (pin "1" (uuid e41aa4b0-e74c-43a7-ab93-48f42d03ad18))
  )

  (symbol (lib_id "Regulator_Linear:LM1085-5.0") (at 125.73 87.63 0) (unit 1)
    (in_bom yes) (on_board yes)
    (uuid d3d73fed-50f4-4742-947e-a58ce2834d8c)
    (property "Reference" "IC1" (id 0) (at 118.11 81.915 0)
      (effects (font (size 1.778 1.5113)) (justify left bottom))
    )
    (property "Value" "LM1085-5.0" (id 1) (at 118.11 84.455 0)
      (effects (font (size 1.778 1.5113)) (justify left bottom))
    )
    (property "Footprint" "Package_TO_SOT_THT:TO-220-3_Vertical" (id 2) (at 125.73 81.28 0)
      (effects (font (size 1.27 1.27) italic) hide)
    )
    (property "Datasheet" "http://www.ti.com/lit/ds/symlink/lm1085.pdf" (id 3) (at 125.73 87.63 0)
      (effects (font (size 1.27 1.27)) hide)
    )
    (pin "1" (uuid ae274cd8-6902-4e7f-b8ca-c7e3073e1b9c))
    (pin "2" (uuid 361ce4e5-1e9e-4990-a2f1-e28831217240))
    (pin "3" (uuid da167ad0-83e8-440a-a12a-70db82e3c6f7))
  )

  (symbol (lib_id "power:GNDREF") (at 125.73 100.33 0) (unit 1)
    (in_bom yes) (on_board yes)
    (uuid d6b41ed7-e99d-4609-b23a-95b1b5eb83ea)
    (property "Reference" "#SUPPLY0113" (id 0) (at 125.73 100.33 0)
      (effects (font (size 1.27 1.27)) hide)
    )
    (property "Value" "GND" (id 1) (at 123.825 103.505 0)
      (effects (font (size 1.778 1.5113)) (justify left bottom) hide)
    )
    (property "Footprint" "motherboard:" (id 2) (at 125.73 100.33 0)
      (effects (font (size 1.27 1.27)) hide)
    )
    (property "Datasheet" "" (id 3) (at 125.73 100.33 0)
      (effects (font (size 1.27 1.27)) hide)
    )
    (pin "1" (uuid b16ec400-5215-407b-b9e0-c2453c6f4285))
  )

  (symbol (lib_id "power:PWR_FLAG") (at 83.82 97.79 180) (unit 1)
    (in_bom yes) (on_board yes)
    (uuid ec454df3-ac6e-4962-b79b-eba66472b6ed)
    (property "Reference" "#GND0101" (id 0) (at 90.17 100.33 0))
    (property "Value" "PWR_FLAG" (id 1) (at 83.82 102.87 0))
    (property "Footprint" "" (id 2) (at 83.82 97.79 0)
      (effects (font (size 1.27 1.27)) hide)
    )
    (property "Datasheet" "~" (id 3) (at 83.82 97.79 0)
      (effects (font (size 1.27 1.27)) hide)
    )
    (pin "1" (uuid ad7e6619-e8d9-4009-8703-c24652197e55))
  )

  (symbol (lib_id "power:GNDREF") (at 205.74 129.54 0) (unit 1)
    (in_bom yes) (on_board yes)
    (uuid ef66b3f1-14c0-4dfc-8098-939364bfa00f)
    (property "Reference" "#SUPPLY04" (id 0) (at 205.74 129.54 0)
      (effects (font (size 1.27 1.27)) hide)
    )
    (property "Value" "GND" (id 1) (at 203.835 132.715 0)
      (effects (font (size 1.778 1.5113)) (justify left bottom) hide)
    )
    (property "Footprint" "motherboard:" (id 2) (at 205.74 129.54 0)
      (effects (font (size 1.27 1.27)) hide)
    )
    (property "Datasheet" "" (id 3) (at 205.74 129.54 0)
      (effects (font (size 1.27 1.27)) hide)
    )
    (pin "1" (uuid b1b3a29a-43fc-43aa-aed2-5f8fb2425dfe))
  )

  (symbol (lib_id "Connector:Conn_01x02_Male") (at 72.39 87.63 0) (unit 1)
    (in_bom yes) (on_board yes) (fields_autoplaced)
    (uuid f376e02b-32a8-40c3-bd94-543910b0c920)
    (property "Reference" "J1" (id 0) (at 73.025 82.55 0))
    (property "Value" "Power In" (id 1) (at 73.025 85.09 0))
    (property "Footprint" "Connector_PinHeader_2.54mm:PinHeader_1x02_P2.54mm_Vertical" (id 2) (at 72.39 87.63 0)
      (effects (font (size 1.27 1.27)) hide)
    )
    (property "Datasheet" "~" (id 3) (at 72.39 87.63 0)
      (effects (font (size 1.27 1.27)) hide)
    )
    (pin "1" (uuid e59c10fe-f2fd-4fb4-a9b9-b3a865dfddce))
    (pin "2" (uuid d9a9e742-e7ca-4483-8cbb-7de56f157b17))
  )

  (sheet_instances
    (path "/" (page "1"))
    (path "/14bc26d8-b0a2-4b22-9182-c79295a06ac0" (page "2"))
  )

  (symbol_instances
    (path "/2c30b6fc-9317-4db3-856e-858add0d0df0"
      (reference "#+3V?") (unit 1) (value "+3V3") (footprint "motherboard:")
    )
    (path "/76c4266a-f9c6-4bd7-89f3-6be8d95ded76"
      (reference "#+3V?") (unit 1) (value "+3V3") (footprint "motherboard:")
    )
    (path "/cdedfab4-0379-4cfb-9198-543db54c101b"
      (reference "#+3V?") (unit 1) (value "+3V3") (footprint "motherboard:")
    )
    (path "/ceff3866-a19d-4cc1-a9d3-7a20b1db0988"
      (reference "#+3V?") (unit 1) (value "+3V3") (footprint "motherboard:")
    )
    (path "/cf5e3496-76c8-45ee-aa22-86b53adca46e"
      (reference "#+3V?") (unit 1) (value "+3V3") (footprint "motherboard:")
    )
    (path "/f80fb7e4-2777-4fc2-84cc-845909679e39"
      (reference "#+3V?") (unit 1) (value "+3V3") (footprint "motherboard:")
    )
    (path "/04d104b4-8cd8-4ff8-8378-5f1e31624493"
      (reference "#P+?") (unit 1) (value "+12V") (footprint "motherboard:")
    )
    (path "/0b9a31b3-71f3-4157-9a7a-513a6a4871fe"
      (reference "#P+?") (unit 1) (value "+5V") (footprint "motherboard:")
    )
    (path "/3dc88b24-4d9c-43bd-9902-20c0e22b2cba"
      (reference "#P+?") (unit 1) (value "+5V") (footprint "motherboard:")
    )
    (path "/87c58959-b8d4-4ce2-b104-338db9a6739f"
      (reference "#P+?") (unit 1) (value "+5V") (footprint "motherboard:")
    )
    (path "/b24e7dfc-a068-412a-a536-046614ba0536"
      (reference "#P+?") (unit 1) (value "+5V") (footprint "motherboard:")
    )
    (path "/b805ccf9-2e3c-444e-a16b-2b33ef2c77f4"
      (reference "#P+?") (unit 1) (value "+5V") (footprint "motherboard:")
    )
    (path "/c3d39aaf-5c56-4b97-a13b-5b1b47f30a8b"
      (reference "#P+?") (unit 1) (value "+5V") (footprint "motherboard:")
    )
    (path "/f6f29bc6-6afd-422d-8f2d-a71f386bda92"
      (reference "#P+?") (unit 1) (value "+5V") (footprint "motherboard:")
    )
    (path "/02c54f3e-7e39-4402-b505-18f7bdfb8702"
      (reference "#SUPPLY?") (unit 1) (value "GND") (footprint "motherboard:")
    )
    (path "/03968e2d-b39a-4c22-9e26-b82ba5506666"
      (reference "#SUPPLY?") (unit 1) (value "GND") (footprint "motherboard:")
    )
    (path "/1926efdb-cd58-4df3-995a-db65dc8c6db0"
      (reference "#SUPPLY?") (unit 1) (value "GND") (footprint "motherboard:")
    )
    (path "/279243f8-1dfd-44f5-ac4e-245243c70d45"
      (reference "#SUPPLY?") (unit 1) (value "GND") (footprint "motherboard:")
    )
    (path "/2a0c4c42-99ab-452d-8d46-27d234ba4801"
      (reference "#SUPPLY?") (unit 1) (value "GND") (footprint "motherboard:")
    )
    (path "/2f812110-a1b0-44bb-bd91-00be9b91196c"
      (reference "#SUPPLY?") (unit 1) (value "GND") (footprint "motherboard:")
    )
    (path "/372d2e9b-9ec7-4f29-9415-1ef425072f4d"
      (reference "#SUPPLY?") (unit 1) (value "GND") (footprint "motherboard:")
    )
    (path "/4b3d666f-f652-47fa-a282-f93bc3781aab"
      (reference "#SUPPLY?") (unit 1) (value "GND") (footprint "motherboard:")
    )
    (path "/576781da-3af6-44cb-8f59-e18fd5fba78c"
      (reference "#SUPPLY?") (unit 1) (value "GND") (footprint "motherboard:")
    )
    (path "/629239c1-dd6a-4399-bff4-a9e6b2c347ac"
      (reference "#SUPPLY?") (unit 1) (value "GND") (footprint "motherboard:")
    )
    (path "/75530a60-8986-4010-bdb3-45577f8845e4"
      (reference "#SUPPLY?") (unit 1) (value "GND") (footprint "motherboard:")
    )
    (path "/7e87feb7-0101-4554-befb-49d810a78ed2"
      (reference "#SUPPLY?") (unit 1) (value "GND") (footprint "motherboard:")
    )
    (path "/8842f04d-1cf7-4bd1-8f4b-6cc06a70b624"
      (reference "#SUPPLY?") (unit 1) (value "GND") (footprint "motherboard:")
    )
    (path "/8c77c579-0b21-4a8c-8fde-f0ab5049a78b"
      (reference "#SUPPLY?") (unit 1) (value "GND") (footprint "motherboard:")
    )
    (path "/907872a9-ff0d-4c98-b8dc-3a99c0885d3c"
      (reference "#SUPPLY?") (unit 1) (value "GND") (footprint "motherboard:")
    )
    (path "/93483910-0cc8-4d12-ac63-57df43db2705"
      (reference "#SUPPLY?") (unit 1) (value "GND") (footprint "motherboard:")
    )
    (path "/95a7dfbf-691a-452c-a1d6-a9fd3115cd6d"
      (reference "#SUPPLY?") (unit 1) (value "GND") (footprint "motherboard:")
    )
    (path "/95ec4230-8155-49f1-a3a3-fbb077d9346c"
      (reference "#SUPPLY?") (unit 1) (value "GND") (footprint "motherboard:")
    )
    (path "/9d0dea5e-c40a-4154-bcab-24552600b4ca"
      (reference "#SUPPLY?") (unit 1) (value "GND") (footprint "motherboard:")
    )
    (path "/aa6b5a79-425c-4f37-b9ed-182fadf9809f"
      (reference "#SUPPLY?") (unit 1) (value "GND") (footprint "motherboard:")
    )
    (path "/cc28f8de-3b73-48c3-b866-55205e3aa0cb"
      (reference "#SUPPLY?") (unit 1) (value "GND") (footprint "motherboard:")
    )
    (path "/d6b41ed7-e99d-4609-b23a-95b1b5eb83ea"
      (reference "#SUPPLY?") (unit 1) (value "GND") (footprint "motherboard:")
    )
    (path "/10927c1b-ebfd-45d5-9120-4867c717f270"
      (reference "BAND_DATA?") (unit 1) (value "53?-05398") (footprint "motherboard:53398-05")
    )
    (path "/bddd4aef-8636-4af3-ab4e-8d0497655669"
      (reference "BAND_DATA?") (unit 2) (value "53?-05398") (footprint "motherboard:53398-05")
    )
    (path "/848e6c60-8509-4c49-8f79-e2650c519a8f"
      (reference "BAND_DATA?") (unit 3) (value "53?-05398") (footprint "motherboard:53398-05")
    )
    (path "/5a362f73-38e5-4390-9180-0ee5a083e145"
      (reference "BAND_DATA?") (unit 4) (value "53?-05398") (footprint "motherboard:53398-05")
    )
    (path "/f87e64da-fa0c-4b2c-994b-7de507d5096f"
      (reference "BAND_DATA?") (unit 5) (value "53?-05398") (footprint "motherboard:53398-05")
    )
    (path "/8c6c36fb-9c46-45e4-a480-15f6f2a410c3"
      (reference "C1") (unit 1) (value "100uF") (footprint "motherboard:085CS_1AR")
    )
    (path "/cf7668c8-1dd7-49a3-a226-d121163a7ef6"
      (reference "C2") (unit 1) (value "10uF") (footprint "motherboard:085CS_1AR")
    )
    (path "/69578399-0bfe-4bee-834b-3e9f2e1a29f9"
      (reference "C3") (unit 1) (value "10uF") (footprint "motherboard:085CS_1AR")
    )
    (path "/41914503-f4bf-49e4-b055-e86d1f8d4917"
      (reference "C4") (unit 1) (value "100uF") (footprint "motherboard:085CS_1AR")
    )
    (path "/01e6bc7f-1c40-4a7d-b55f-b467fd355ca5"
      (reference "C5") (unit 1) (value "10uF") (footprint "motherboard:085CS_1AR")
    )
    (path "/ebeab8ff-5991-4846-adc3-4c9b79f045cd"
      (reference "C6") (unit 1) (value "10uF") (footprint "motherboard:085CS_1AR")
    )
    (path "/22f06196-0371-4b47-96b6-56f0df370556"
      (reference "C?") (unit 1) (value "22pF") (footprint "motherboard:C0402")
    )
    (path "/2975bde9-61de-4f68-b6e1-57e77818e68c"
      (reference "C?") (unit 1) (value "22pF") (footprint "motherboard:C0402")
    )
    (path "/c9f310c5-6f16-4db7-a99b-6a8c9d1f7970"
      (reference "C?") (unit 1) (value "100uF") (footprint "motherboard:085CS_1AR")
    )
    (path "/c32d3453-4d9b-4421-baac-444d5173d229"
      (reference "CAN_BUS?") (unit 1) (value "53?-03398") (footprint "motherboard:53398-03")
    )
    (path "/803c074d-32ee-4439-b54f-2161986c6eec"
      (reference "CAN_BUS?") (unit 2) (value "53?-03398") (footprint "motherboard:53398-03")
    )
    (path "/6873a01f-39d3-47ae-a47c-76dc6d3ac34d"
      (reference "CAN_BUS?") (unit 3) (value "53?-03398") (footprint "motherboard:53398-03")
    )
    (path "/365159df-23e4-4f2e-b0be-da712fd5fddb"
      (reference "D1") (unit 1) (value "1N4007FL") (footprint "motherboard:SOD123")
    )
    (path "/d3d73fed-50f4-4742-947e-a58ce2834d8c"
      (reference "IC1") (unit 1) (value "7805DT") (footprint "motherboard:TO252")
    )
    (path "/0b6bb0fd-afaf-441d-98b6-095ac00e7062"
      (reference "IC2") (unit 1) (value "MC33269?D") (footprint "motherboard:DPACK")
    )
    (path "/37855023-1391-4a46-a8e9-10be7d303c47"
      (reference "IC?") (unit 1) (value "MCP23017SO") (footprint "motherboard:SO28W")
    )
    (path "/70a1248d-d377-4010-acb6-c2bec039da31"
      (reference "IC?") (unit 1) (value "MCP2515") (footprint "motherboard:SO18W")
    )
    (path "/cd7479d6-7f07-4402-9488-588392f80052"
      (reference "IC?") (unit 1) (value "MCP2551") (footprint "motherboard:SOIC127P599X175-8")
    )
    (path "/e98fb1e9-dcb3-4943-b5e9-ac5075fe1d4f"
      (reference "IC?") (unit 1) (value "MCP23017SO") (footprint "motherboard:SO28W")
    )
    (path "/cfe15e50-e53d-4f1d-a70c-8a723a6c9ed3"
      (reference "LCD?") (unit 1) (value "PINHD-1X16") (footprint "motherboard:1X16")
    )
    (path "/9c297e70-dbdf-4b74-8997-327837a689f5"
      (reference "MANUAL_CONTROL?") (unit 1) (value "C-GRID-16-74099") (footprint "motherboard:74099-16")
    )
    (path "/b07bd21d-3f59-49e2-b3c2-4a0a7a7f0bb7"
      (reference "MANUAL_CONTROL?") (unit 2) (value "C-GRID-16-74099") (footprint "motherboard:74099-16")
    )
    (path "/0f783898-8b67-4339-aa57-4579dfddbfb6"
      (reference "MANUAL_CONTROL?") (unit 3) (value "C-GRID-16-74099") (footprint "motherboard:74099-16")
    )
    (path "/9e70e958-7937-427c-8718-ac822fec42a0"
      (reference "MANUAL_CONTROL?") (unit 4) (value "C-GRID-16-74099") (footprint "motherboard:74099-16")
    )
    (path "/3f0c4268-9670-42b2-b0e6-572fcdba9364"
      (reference "MANUAL_CONTROL?") (unit 5) (value "C-GRID-16-74099") (footprint "motherboard:74099-16")
    )
    (path "/735ec9ac-5fc9-4ea2-b7b8-f905846cc4ee"
      (reference "MANUAL_CONTROL?") (unit 6) (value "C-GRID-16-74099") (footprint "motherboard:74099-16")
    )
    (path "/954b88bf-4a96-416a-b999-490fdb31c2bf"
      (reference "MANUAL_CONTROL?") (unit 7) (value "C-GRID-16-74099") (footprint "motherboard:74099-16")
    )
    (path "/86b023a5-6f68-47e6-8ced-8526700b4108"
      (reference "MANUAL_CONTROL?") (unit 8) (value "C-GRID-16-74099") (footprint "motherboard:74099-16")
    )
    (path "/2813a1cd-2286-4176-948b-d1973d13d4f6"
      (reference "MANUAL_CONTROL?") (unit 9) (value "C-GRID-16-74099") (footprint "motherboard:74099-16")
    )
    (path "/49abcf28-72b0-4a65-9428-5c753cda9cfb"
      (reference "MANUAL_CONTROL?") (unit 10) (value "C-GRID-16-74099") (footprint "motherboard:74099-16")
    )
    (path "/ebfbd230-0b20-4eff-a82a-b7c5f194ebe2"
      (reference "MANUAL_CONTROL?") (unit 11) (value "C-GRID-16-74099") (footprint "motherboard:74099-16")
    )
    (path "/f2c54553-dba7-4a2c-8794-09fa5737ff64"
      (reference "MANUAL_CONTROL?") (unit 12) (value "C-GRID-16-74099") (footprint "motherboard:74099-16")
    )
    (path "/84b14fb8-ff54-43e0-ae12-49ee5b00e8c0"
      (reference "MANUAL_CONTROL?") (unit 13) (value "C-GRID-16-74099") (footprint "motherboard:74099-16")
    )
    (path "/e3e6ccbd-a4d2-4a5d-986c-ca764aeb4678"
      (reference "MANUAL_CONTROL?") (unit 14) (value "C-GRID-16-74099") (footprint "motherboard:74099-16")
    )
    (path "/0d4d5c49-e557-48eb-a31d-825edd62219f"
      (reference "MANUAL_CONTROL?") (unit 15) (value "C-GRID-16-74099") (footprint "motherboard:74099-16")
    )
    (path "/2b4e0223-6caa-419d-ac5e-11b8239f55ea"
      (reference "MANUAL_CONTROL?") (unit 16) (value "C-GRID-16-74099") (footprint "motherboard:74099-16")
    )
    (path "/da22af6e-c255-4535-8780-4108ecb7b8dd"
      (reference "PWR0") (unit 1) (value "53?-02398") (footprint "motherboard:53398-02")
    )
    (path "/a61add41-f81c-4201-bc75-a1f511058489"
      (reference "PWR1") (unit 2) (value "53?-02398") (footprint "motherboard:53398-02")
    )
    (path "/06339189-17f6-42b0-b71e-6ed427b33f38"
      (reference "Q?") (unit 1) (value "BSS138") (footprint "motherboard:SOT95P240X120-3N")
    )
    (path "/6159ac80-8c81-48b7-b00e-937122b1773c"
      (reference "Q?") (unit 1) (value "8MHz") (footprint "motherboard:HC49UP")
    )
    (path "/0e5f7b65-ccb2-4fb2-892f-fd97aecff9d0"
      (reference "R?") (unit 1) (value "1K5") (footprint "motherboard:R0805")
    )
    (path "/72b21b42-bbc8-41e1-a512-17030754444d"
      (reference "R?") (unit 1) (value "1k2") (footprint "motherboard:R1206")
    )
    (path "/767ad512-945d-4b89-ba81-823bc79444d3"
      (reference "R?") (unit 1) (value "10K") (footprint "motherboard:R0805")
    )
    (path "/7b76bae9-6882-4d7d-a471-0200dd291cb5"
      (reference "R?") (unit 1) (value "800R") (footprint "motherboard:R1206")
    )
    (path "/9849f215-2808-4f9f-971c-62b7a441a27a"
      (reference "R?") (unit 1) (value "200K") (footprint "motherboard:R0805")
    )
    (path "/a54b82ae-1685-4691-b1b1-61d3aeee3a59"
      (reference "R?") (unit 1) (value "200K") (footprint "motherboard:R0805")
    )
    (path "/bcbfdb39-441a-41f7-a7ce-19b68bf5d022"
      (reference "R?") (unit 1) (value "10K") (footprint "motherboard:R0805")
    )
    (path "/c6b093ae-1e33-48dd-9eed-d543f0cdfed3"
      (reference "R?") (unit 1) (value "200K") (footprint "motherboard:R0805")
    )
    (path "/e176b778-13fd-4bcc-96e3-f2caf2d47663"
      (reference "R?") (unit 1) (value "1K5") (footprint "motherboard:R0805")
    )
    (path "/d1c40ff6-d845-444e-8914-b4b6a5b04b16"
      (reference "RASPI-ZERO?") (unit 1) (value "PINHD-2X20") (footprint "motherboard:2X20")
    )
    (path "/df97ccc8-411a-42ac-aaed-326140a08135"
      (reference "TM?") (unit 1) (value "10K") (footprint "motherboard:TC33X")
    )
    (path "/27716de9-f138-48d5-8e47-d6f845dc5992"
      (reference "U?") (unit 1) (value "PCA9306") (footprint "motherboard:PSOP-8")
    )
  )
)
